…
All deaths in NI, by year

mc_clean %>%
  filter(location < 19) %>%
   group_by(location_name, year) %>%
  summarise(victims = n()) %>%
  arrange(year) %>%
  ungroup () %>%
  mutate(location_name = recode(location_name, 'West Belfast' = 'Belfast West', 'North Belfast' = 'Belfast North' , 'South Belfast' = 'Belfast South', 'East Belfast' = 'Belfast East')) #%>%

## # A tibble: 437 x 3
##    location_name     year victims
##    <fct>            <int>   <int>
##  1 East Londonderry  1969       1
##  2 Foyle             1969       2
##  3 Newry & Armagh    1969       1
##  4 Belfast North     1969       7
##  5 Belfast West      1969       5
##  6 East Antrim       1970       1
##  7 Belfast East      1970       3
##  8 Foyle             1970       5
##  9 Newry & Armagh    1970       2
## 10 Belfast North     1970       5
## # ... with 427 more rows
…
mc_clean %>%
  group_by(location_name) %>%
  summarise(victims = n()) %>%
  arrange(desc(victims)) #%>%

## # A tibble: 38 x 2
##    location_name            victims
##    <fct>                      <int>
##  1 West Belfast                 663
##  2 North Belfast                629
##  3 Newry & Armagh               432
##  4 Foyle                        253
##  5 Fermanagh & South Tyrone     229
##  6 South Belfast                192
##  7 Upper Bann                   152
##  8 East Belfast                 143
##  9 West Tyrone                  141
## 10 Republic Of Ireland          115
## # ... with 28 more rows
…
